<?xml version="1.0" encoding="utf-8"?>
<!-- Generator: Adobe Illustrator 18.1.1, SVG Export Plug-In . SVG Version: 6.00 Build 0)  -->
<svg version="1.1" id="XMLID_1_" xmlns="http://www.w3.org/2000/svg" xmlns:xlink="http://www.w3.org/1999/xlink" x="0px" y="0px"
	 viewBox="0 0 185.501 185.502" enable-background="new 0 0 185.501 185.502" xml:space="preserve">
<g id="Python">
	<linearGradient id="SVGID_1_" gradientUnits="userSpaceOnUse" x1="0" y1="92.751" x2="185.501" y2="92.751">
		<stop  offset="1" style="stop-color:#5C9FD3"/>
		<stop  offset="1" style="stop-color:#316A99"/>
	</linearGradient>
	<circle fill="url(#SVGID_1_)" cx="92.7505" cy="92.75" r="92.7505"/>
	<g>
		<g>
			<path fill="#F1F2F2" d="M37.8418,55.9766c1.6739,10.2149,13.6846,83.4961,13.6846,83.4961
				c0.0254,0.1543,0.0586,0.3086,0.0957,0.4609c-0.0039-0.0156-0.0088-0.0293-0.0127-0.0449
				c0.0039,0.0156,0.0088,0.0313,0.0127,0.0469c0.0156,0.0625,0.0322,0.125,0.0488,0.1875
				c-0.0058-0.0156-0.0117-0.0313-0.0166-0.0488c0.6944,2.9785,3.0508,5.3632,5.5381,7.1347
				c2.7715,1.9727,5.9981,3.3496,9.2422,4.4532c6.6621,2.2656,13.8154,3.2753,20.8545,3.6445
				c6.5557,0.3418,13.1914,0.1074,19.6816-0.8594c0.2032-0.0312,0.4063-0.0605,0.6094-0.0918
				c4.5928-0.6933,9.2852-1.8555,12.877-3.1933c0.9492-0.3516,2.9228-1.0879,5.2803-2.3614
				c0.5195-0.2812,2.3369-1.3008,3.872-2.5898c0.8633-0.7246,1.877-1.6621,2.8516-3.1016c0.3398-0.5039,0.666-1.123,0.7871-1.4023
				c0.2871-0.6485,0.373-0.8789,0.5117-1.3731c0.0879-0.2851,0.1582-0.5742,0.207-0.8652l13.8379-84.4473
				c0.0996-0.4687,0.1192-0.6757,0.2032-1.6425c0-0.0547,0-0.1094-0.002-0.1622c0,0.0274,0,0.0528,0,0
				c0,0.0274,0.0078,0.0762,0.0059,0.1036c0-0.0508-0.0059-0.125-0.0059-0.1778c0.1328-6.2851-5.1699-11.041-10.4453-13.9765
				c-6.7539-3.7578-14.5098-5.8321-22.1445-7.1993c-8.4317-1.5078-17.0967-2.0234-25.668-1.9043
				c-8.3906,0.1153-16.791,1.1055-24.9482,2.9922c-3.8672,0.8946-7.6846,2.0215-11.3458,3.5215
				c-3.2041,1.3106-6.3349,2.8848-9.0898,4.9395c-2.4775,1.8457-4.7148,4.1386-5.9375,6.9394
				c-0.8564,1.961-1.1406,4.1289-0.7939,6.2032C37.7657,55.4512,37.7168,55.2129,37.8418,55.9766z"/>
		</g>
	</g>
	<path fill="#D1D3D4" d="M148.0059,53.2168c0,0.0274,0.0078,0.0528,0.0059,0.0821c0-0.0528-0.0059-0.1035-0.0059-0.1563
		c0.1348-6.2851-5.168-11.041-10.4453-13.9765c-6.7539-3.7578-14.5088-5.8321-22.1445-7.1993
		c-8.4317-1.5078-17.0967-2.0234-25.667-1.9043c-8.3907,0.1153-16.791,1.1055-24.9483,2.9922
		c-3.8681,0.8946-7.6855,2.0215-11.3457,3.5215c-3.2041,1.3106-6.3349,2.8848-9.0908,4.9395
		c-2.4775,1.8457-4.7139,4.1386-5.9365,6.9394c-1.3555,3.1016-1.2793,6.7207,0.4638,9.6719
		c1.7383,2.9434,4.6905,5.1191,7.6592,6.8574c3.3418,1.9571,6.9844,3.4043,10.6983,4.5801c7.9238,2.5117,16.2099,3.8574,24.5185,4.5
		c8.5733,0.6621,17.2178,0.5508,25.7676-0.3437c8.1875-0.8575,16.4189-2.4356,24.1035-5.3204
		c3.5625-1.3379,7.0371-3.0097,10.0938-5.2285c2.7304-1.9804,5.207-4.541,5.9863-7.8144c0.0098-0.0469,0.0625-0.1797,0.0625-0.2266
		c0.1211-0.5508,0.1367-0.7129,0.2266-1.7519C148.0079,53.3243,148.0079,53.2696,148.0059,53.2168
		C148.0059,53.2579,148.0059,53.2579,148.0059,53.2168C148.0059,53.2442,148.0059,53.2696,148.0059,53.2168z"/>
	<path fill="#58595B" d="M93.4747,36.4708c-22.9239-0.1524-41.8311,6.7968-42.2315,15.5214
		c-0.4004,8.7227,17.8584,15.92,40.7822,16.0723c22.9248,0.1523,41.8321-6.7969,42.2325-15.5215
		C134.6563,43.8184,116.3995,36.6231,93.4747,36.4708z"/>
	<linearGradient id="SVGID_2_" gradientUnits="userSpaceOnUse" x1="55.2764" y1="57.3943" x2="130.2247" y2="57.3943">
		<stop  offset="1" style="stop-color:#FFD43D"/>
		<stop  offset="1" style="stop-color:#FEE875"/>
	</linearGradient>
	<path fill="url(#SVGID_2_)" d="M130.2247,57.9922c-0.0411,0.0371-0.0801,0.0703-0.1133,0.0977
		c-0.7266,0.6211-1.4512,1.1289-2.0342,1.5039c-0.4356,0.2734-0.8975,0.5449-1.3936,0.8125
		c-0.0332,0.0195-0.0664,0.0371-0.1025,0.0566c-0.8623,0.461-1.8135,0.9102-2.8428,1.3418
		c-0.0644,0.0274-0.1269,0.0567-0.1933,0.084c-5.0645,2.1016-12.0118,3.8145-20.0362,4.6406
		c-1.5722,0.1563-3.2881,0.293-4.6767,0.3692c-2.1211,0.1152-3.9522,0.1543-5.2002,0.164c-0.542,0.004-1.085,0.0059-1.6328,0
		c-17.9727-0.164-31.5869-4.4492-36.7227-9.1093c5.3535-6.041,20.5-10.3457,38.1475-10.2285
		C110.6231,47.8399,125.0625,52.1192,130.2247,57.9922z"/>
	<g>
		<g>
			
				<linearGradient id="SVGID_3_" gradientUnits="userSpaceOnUse" x1="148.2319" y1="-1275.0117" x2="207.4317" y2="-1325.9452" gradientTransform="matrix(0.5625 0 0 -0.568 -21.3907 -640.0635)">
				<stop  offset="1" style="stop-color:#5C9FD3"/>
				<stop  offset="1" style="stop-color:#316A99"/>
			</linearGradient>
			<path fill="url(#SVGID_3_)" d="M92.6695,86.9561c-2.5625,0.001-5.0083,0.0947-7.146,0.2871
				c-6.2959,0.5625-7.3018,2.3203-7.1143,6.1719c0.0991,2.0351,0.148,3.0537,0.2471,5.0889
				c5.7124,0.7841,8.5952,0.9785,14.3472,0.9804c0,0.6758,0.0005,1.0137,0.0005,1.6895c-5.7188-0.002-8.585-0.1983-14.2647-0.9776
				c-2.1313-0.292-3.1938-0.4638-5.312-0.8662c-4.1011-0.7783-7.4453,0.6045-8.0977,4.7823
				c-0.7548,4.7851-0.4433,7.9921,1.3096,13.7021c1.3013,4.249,3.6919,7.709,7.4067,8.4629
				c1.7579,0.3564,2.6402,0.5127,4.4092,0.7861c-0.1338-2.4414-0.2011-3.6611-0.3349-6.1025
				c-0.2412-4.4102,3.4209-7.669,8.0503-7.3516c5.4545,0.3731,8.1987,0.374,13.6533,0.0059
				c3.7959-0.2569,6.9599-3.751,7.1406-7.4785c0.2461-5.084,0.3677-7.626,0.6138-12.71c0.1753-3.6162-3.0767-5.8496-7.1162-6.1777
				C97.9058,87.0411,95.2325,86.9541,92.6695,86.9561z M84.6817,90.711c1.5249,0.1172,2.7925,1.3174,2.8183,2.7207
				c0.0259,1.3984-1.1787,2.4697-2.6777,2.3545c-1.5039-0.1162-2.7627-1.375-2.814-2.7754
				C81.9566,91.6055,83.1524,90.5928,84.6817,90.711z"/>
			
				<linearGradient id="SVGID_4_" gradientUnits="userSpaceOnUse" x1="229.1982" y1="-1354.2446" x2="210.0406" y2="-1327.14" gradientTransform="matrix(0.5625 0 0 -0.568 -21.3907 -640.0635)">
				<stop  offset="1" style="stop-color:#FFD43D"/>
				<stop  offset="1" style="stop-color:#FEE875"/>
			</linearGradient>
			<path fill="url(#SVGID_4_)" d="M109.021,99.9522c-0.1289,2.373-0.1938,3.5615-0.3227,5.9346
				c-0.25,4.5996-4.3975,9.0996-8.9141,9.4043c-5.4223,0.3662-8.1504,0.3652-13.5727-0.0059
				c-3.7124-0.2539-6.6197,2.4307-6.4414,6.0889c0.2475,5.084,0.373,7.624,0.6206,12.708c0.1762,3.6181,3.1875,6.1572,6.4629,7.415
				c3.9228,1.5069,7.604,1.7822,12.2949,0.0039c3.1186-1.1797,6.2749-3.5556,6.4614-7.4072
				c0.0986-2.0352,0.148-3.0547,0.2466-5.0898c-5.1172,0.6972-7.6973,0.872-12.8491,0.8701c0-0.6758-0.0005-1.0127-0.0005-1.6885
				c5.1846,0.0019,7.7812-0.1729,12.9311-0.875c2.5782-0.3516,3.8633-0.5732,6.4185-1.1016
				c3.7139-0.7675,5.3057-3.9072,7.0034-8.373c1.7544-4.6006,2.148-8.6631,1.3071-13.7012
				c-0.6025-3.6279-2.2495-5.9824-6.3457-5.1357C112.2085,99.4356,111.149,99.625,109.021,99.9522z M100.1529,132.9864
				c1.3164-0.1006,2.3408,0.9179,2.29,2.3183c-0.0513,1.4053-1.1382,2.6592-2.4287,2.7578
				c-1.2866,0.0977-2.3169-0.9912-2.2915-2.3945C97.7481,134.2696,98.8409,133.086,100.1529,132.9864z"/>
		</g>
	</g>
</g>
</svg>
